{
    "info": {
        "count": 826,
        "pages": 42,
        "next": "https://rickandmortyapi.com/api/character?page=2",
        "prev": null
    },
    "results": [
        {
            "id": 232,
            "name": "Morty Smith",
            "status": "Alive",
            "species": "Human",
            "type": "",
            "gender": "Male",
            "origin": {
                "name": "Earth (Evil Rick's Target Dimension)",
                "url": "https://rickandmortyapi.com/api/location/34"
            },
            "location": {
                "name": "Earth (Evil Rick's Target Dimension)",
                "url": "https://rickandmortyapi.com/api/location/34"
            },
            "image": "https://rickandmortyapi.com/api/character/avatar/232.jpeg",
            "episode": [
                "https://rickandmortyapi.com/api/episode/10"
            ],
            "url": "https://rickandmortyapi.com/api/character/232",
            "created": "2017-12-30T16:29:27.863Z"
        },
        {
            "id": 234,
            "name": "Morty Smith",
            "status": "Dead",
            "species": "Human",
            "type": "",
            "gender": "Male",
            "origin": {
                "name": "Earth (Replacement Dimension)",
                "url": "https://rickandmortyapi.com/api/location/20"
            },
            "location": {
                "name": "Earth (Replacement Dimension)",
                "url": "https://rickandmortyapi.com/api/location/20"
            },
            "image": "https://rickandmortyapi.com/api/character/avatar/234.jpeg",
            "episode": [
                "https://rickandmortyapi.com/api/episode/6"
            ],
            "url": "https://rickandmortyapi.com/api/character/234",
            "created": "2017-12-30T16:35:01.223Z"
        }        
    ]
}